resources/test_data_busses.vcd
$date
   January 1st 2023
$end
$version
   MultiDataBus Example
$end
$timescale
   1ns
$end
$scope module top $end
$var wire 1 ! clk $end
$var wire 1 " reset $end
$var wire 8 A data_bus1[7:0] $end
$var wire 8 B data_bus2[7:0] $end
$var wire 8 C data_bus3[7:0] $end
$var wire 8 D data_bus4[7:0] $end
$var wire 8 E data_bus5[7:0] $end
$var wire 16 F data_bus6[15:0] $end
$var wire 16 G data_bus7[15:0] $end
$var wire 4 H data_bus8[3:0] $end
$var wire 4 I data_bus9[3:0] $end
$var wire 32 J data_bus10[31:0] $end
$upscope $end
$enddefinitions $end
$dumpvars
1!
1"
b00000000 A
b11111111 B
b10101010 C
b01010101 D
b00001111 E
b0000000000000001 F
b1111111111111111 G
b0000 H
b1111 I
b00000000000000000000000000000000 J
$end
#5
0!
#10
1!
0"
b00000001 A
b11111110 B
b10101011 C
b01010100 D
b00011110 E
b0000000000000010 F
b1111111111111110 G
b0001 H
b1110 I
b00000000000000000000000000000001 J
#15
0!
#20
1!
b00000011 A
b11111100 B
b10101100 C
b01010011 D
b00111100 E
b0000000000000100 F
b1111111111111100 G
b0010 H
b1101 I
b00000000000000000000000000000010 J
#25
0!
#30
1!
b00000111 A
b11111000 B
b10101101 C
b01010010 D
b01111000 E
b0000000000001000 F
b1111111111111000 G
b0011 H
b1100 I
b00000000000000000000000000000100 J
#35
0!
#40
1!
b00001111 A
b11110000 B
b10101110 C
b01010001 D
b11110000 E
b0000000000010000 F
b1111111111110000 G
b0100 H
b1011 I
b00000000000000000000000000001000 J
#45
0!
#50
1!
b00011111 A
b11100000 B
b10101111 C
b01010000 D
b11100001 E
b0000000000100000 F
b1111111111100000 G
b0101 H
b1010 I
b00000000000000000000000000010000 J
#55
0!
#60
1!
b00111111 A
b11000000 B
b10110000 C
b01001111 D
b11000011 E
b0000000001000000 F
b1111111111000000 G
b0110 H
b1001 I
b00000000000000000000000000100000 J
#65
0!
#70
1!
b01111111 A
b10000000 B
b10110001 C
b01001110 D
b10000111 E
b0000000010000000 F
b1111111110000000 G
b0111 H
b1000 I
b00000000000000000000000001000000 J
#75
0!
#80
1!
b11111111 A
b00000000 B
b10110010 C
b01001101 D
b00001111 E
b0000000100000000 F
b1111111100000000 G
b1000 H
b0111 I
b00000000000000000000000010000000 J
#85
0!
#90
1!
b11111110 A
b00000001 B
b10110011 C
b01001100 D
b00011110 E
b0000001000000000 F
b1111111000000000 G
b1001 H
b0110 I
b00000000000000000000000100000000 J
#95
0!
#100
1!
b11111100 A
b00000011 B
b10110100 C
b01001011 D
b00111100 E
b0000010000000000 F
b1111110000000000 G
b1010 H
b0101 I
b00000000000000000000001000000000 J
