resources/test_data.vcd
$date
   January 1st 1984
$end
$version
   DigiSurf Test Data
$end
$timescale
   1ns
$end
$scope module top $end
$var wire 1 ! clk $end
$var wire 1 " reset $end
$var wire 1 # data_valid $end
$var wire 8 $ data[7:0] $end
$var wire 1 % tristate $end
$var wire 1 & undefined $end
$upscope $end
$enddefinitions $end
$dumpvars
1!
1"
1#
b00000000 $
z%
x&
$end
#1
0!
#2
1!
0#
b00000010 $
1%
0&
#3
0!
#4
1!
b00000100 $
z%
#5
0!
b00000101 $
x&
#6
1!
0#
b00000110 $
1%
#7
0!
b00000111 $
#8
1!
b00001000 $
z%
0&
#9
0!
b00001001 $
#10
1!
0"
1#
b00001010 $
1%
#11
0!
b00001011 $
#12
1!
0#
b00001100 $
z%
#13
0!
b00001101 $
#14
1!
b00001110 $
1%
#15
0!
b00001111 $
x&
#16
1!
0#
b00010000 $
z%
#17
0!
b00010001 $
#18
1!
b00010010 $
1%
0&
#19
0!
b00010011 $
#20
1!
1#
b00010100 $
z%
#21
0!
b00010101 $
#22
1!
0#
b00010110 $
1%
#23
0!
b00010111 $
#24
1!
b00011000 $
z%
0&
#25
0!
b00011001 $
x&
#26
1!
0#
b00011010 $
1%
#27
0!
b00011011 $
#28
1!
b00011100 $
z%
#29
0!
b00011101 $
#30
1!
1#
b00011110 $
1%
0&
#31
0!
b00011111 $
#32
1!
0#
b00100000 $
z%
#33
0!
b00100001 $
#34
1!
b00100010 $
1%
#35
0!
b00100011 $
x&
#36
1!
0#
b00100100 $
z%
#37
0!
b00100101 $
#38
1!
b00100110 $
1%
0&
#39
0!
b00100111 $
#40
1!
1#
b00101000 $
z%
#41
0!
b00101001 $
#42
1!
0#
b00101010 $
1%
#43
0!
b00101011 $
#44
1!
b00101100 $
z%
0&
#45
0!
b00101101 $
x&
#46
1!
0#
b00101110 $
1%
#47
0!
b00101111 $
#48
1!
b00110000 $
z%
#49
0!
b00110001 $
#50
1!
1#
b00110010 $
1%
0&
#51
0!
b00110011 $
#52
1!
0#
b00110100 $
z%
#53
0!
b00110101 $
#54
1!
b00110110 $
1%
#55
0!
b00110111 $
x&
#56
1!
0#
b00111000 $
z%
#57
0!
b00111001 $
#58
1!
b00111010 $
1%
0&
#59
0!
b00111011 $
#60
1!
1#
b00111100 $
z%
#61
0!
b00111101 $
#62
1!
0#
b00111110 $
1%
#63
0!
b00111111 $
#64
1!
b01000000 $
z%
0&
#65
0!
b01000001 $
x&
#66
1!
0#
b01000010 $
1%
#67
0!
b01000011 $
#68
1!
b01000100 $
z%
#69
0!
b01000101 $
#70
1!
1#
b01000110 $
1%
0&
#71
0!
b01000111 $
#72
1!
0#
b01001000 $
z%
#73
0!
b01001001 $
#74
1!
b01001010 $
1%
#75
0!
b01001011 $
x&
#76
1!
0#
b01001100 $
z%
#77
0!
b01001101 $
#78
1!
b01001110 $
1%
0&
#79
0!
b01001111 $
#80
1!
1#
b01010000 $
z%
#81
0!
b01010001 $
#82
1!
0#
b01010010 $
1%
#83
0!
b01010011 $
#84
1!
b01010100 $
z%
0&
#85
0!
b01010101 $
x&
#86
1!
0#
b01010110 $
1%
#87
0!
b01010111 $
#88
1!
b01011000 $
z%
#89
0!
b01011001 $
#90
1!
1#
b01011010 $
1%
0&
#91
0!
b01011011 $
#92
1!
0#
b01011100 $
z%
#93
0!
b01011101 $
#94
1!
b01011110 $
1%
#95
0!
b01011111 $
x&
#96
1!
0#
b01100000 $
z%
#97
0!
b01100001 $
#98
1!
b01100010 $
1%
0&
#99
0!
b01100011 $
