resources/test_data_many_binary_signals.vcd
$date
  June 10, 2023
$end
$version
  MultiSignal VCD Generator
$end
$timescale
  1ns
$end
$scope module test $end
$var wire 1 a0 bit0 $end
$var wire 1 a1 bit1 $end
$var wire 1 a2 bit2 $end
$var wire 1 a3 bit3 $end
$var wire 1 a4 bit4 $end
$var wire 1 a5 bit5 $end
$var wire 1 a6 bit6 $end
$var wire 1 a7 bit7 $end
$var wire 1 a8 bit8 $end
$var wire 1 a9 bit9 $end
$var wire 1 b0 bit10 $end
$var wire 1 b1 bit11 $end
$var wire 1 b2 bit12 $end
$var wire 1 b3 bit13 $end
$var wire 1 b4 bit14 $end
$var wire 1 b5 bit15 $end
$var wire 1 b6 bit16 $end
$var wire 1 b7 bit17 $end
$var wire 1 b8 bit18 $end
$var wire 1 b9 bit19 $end
$var wire 1 c0 bit20 $end
$var wire 1 c1 bit21 $end
$var wire 1 c2 bit22 $end
$var wire 1 c3 bit23 $end
$var wire 1 c4 bit24 $end
$var wire 1 c5 bit25 $end
$var wire 1 c6 bit26 $end
$var wire 1 c7 bit27 $end
$var wire 1 c8 bit28 $end
$var wire 1 c9 bit29 $end
$var wire 1 d0 bit30 $end
$var wire 1 d1 bit31 $end
$upscope $end
$enddefinitions $end
$dumpvars
0a0
0a1
0a2
0a3
0a4
0a5
0a6
0a7
0a8
0a9
0b0
0b1
0b2
0b3
0b4
0b5
0b6
0b7
0b8
0b9
0c0
0c1
0c2
0c3
0c4
0c5
0c6
0c7
0c8
0c9
0d0
0d1
$end
#5
1a0
1a5
1b2
1c7
#10
0a0
1a1
1a6
0b2
1b3
1c0
0c7
1d0
#15
1a0
0a1
1a2
0a5
0a6
1a7
1b0
0b3
1b4
0c0
1c1
1c8
0d0
1d1
#20
0a0
1a1
0a2
1a3
1a5
0a7
0b0
1b1
0b4
1b5
1b9
0c1
1c2
0c8
1c9
1d0
0d1
#25
1a0
0a1
1a2
0a3
1a4
0a5
1a6
1a8
0b1
1b2
0b5
1b6
0b9
1c0
0c2
1c3
0c9
0d0
1d1
#30
0a0
1a1
0a2
1a3
0a4
1a5
0a6
1a7
0a8
1a9
0b2
1b3
0b6
1b7
1b8
0c0
1c1
0c3
1c4
1c9
1d0
0d1
#35
1a0
0a1
1a2
0a3
1a4
0a5
1a6
0a7
1a8
0a9
1b0
0b3
1b4
0b7
0b8
1b9
0c1
1c2
0c4
1c5
0c9
0d0
1d1
#40
0a0
1a1
0a2
1a3
0a4
1a5
0a6
1a7
0a8
1a9
0b0
1b1
0b4
1b5
1b7
0b9
1c0
0c2
1c3
0c5
1c6
1c8
1d0
0d1
#45
1a0
0a1
1a2
0a3
1a4
0a5
1a6
0a7
1a8
0a9
1b0
0b1
1b2
0b5
1b6
0b7
1b9
0c0
1c1
0c3
1c4
0c6
1c7
0c8
1c9
0d0
1d1
#50
0a0
1a1
0a2
1a3
0a4
1a5
0a6
1a7
0a8
1a9
0b0
1b1
0b2
1b3
0b6
1b7
0b9
1c0
0c1
1c2
0c4
1c5
0c7
1c8
0c9
1d0
0d1
#55
1a0
0a1
1a2
0a3
1a4
0a5
1a6
0a7
1a8
0a9
1b0
0b1
1b2
0b3
1b4
0b6
1b8
0c0
1c1
0c2
1c3
0c5
1c6
0c8
1c9
0d0
1d1
#60
0a0
1a1
0a2
1a3
0a4
1a5
0a6
1a7
0a8
1a9
0b0
1b1
0b2
1b3
0b4
1b5
0b8
1b9
0c1
1c2
0c3
1c4
0c6
1c7
0c9
1d0
0d1
#65
1a0
0a1
1a2
0a3
1a4
0a5
1a6
0a7
1a8
0a9
1b0
0b1
1b2
0b3
1b4
0b5
1b6
0b9
0c2
1c3
0c4
1c5
0c7
1c8
1d0
0d1
#70
0a0
1a1
0a2
1a3
0a4
1a5
0a6
1a7
0a8
1a9
0b0
1b1
0b2
1b3
0b4
1b5
0b6
1b7
1b9
1c0
0c3
1c4
0c5
1c6
0c8
1c9
0d0
1d1
#75
1a0
0a1
1a2
0a3
1a4
0a5
1a6
0a7
1a8
0a9
1b0
0b1
1b2
0b3
1b4
0b5
1b6
0b7
1b8
0b9
0c0
1c1
0c4
1c5
0c6
1c7
0c9
1d0
0d1
